<?xml version="1.0" encoding="UTF-8"?>
<svg width="164px" height="18px" viewBox="0 0 164 18" version="1.1" xmlns="http://www.w3.org/2000/svg" xmlns:xlink="http://www.w3.org/1999/xlink">
    <!-- Generator: Sketch 44.1 (41455) - http://www.bohemiancoding.com/sketch -->
    <title>Group 8</title>
    <desc>Created with Sketch.</desc>
    <defs></defs>
    <g id="Page-1" stroke="none" stroke-width="1" fill="none" fill-rule="evenodd">
        <g id="Work-Sample-Page-Copy-5" transform="translate(-103.000000, -36.000000)">
            <g id="Navigate-Card">
                <g id="content" transform="translate(102.000000, 24.000000)">
                    <g id="logo" transform="translate(0.000000, 7.000000)">
                        <g id="Group-8">
                            <path d="M1.73001884,22 L1.73001884,5.9921875 L6.51126884,5.9921875 L10.3901751,16 L14.2808001,5.9921875 L19.0854876,5.9921875 L19.0854876,22 L15.6518938,22 L15.6518938,10.4570312 L11.1401751,22 L9.65189384,22 L5.14017509,10.4570312 L5.14017509,22 L1.73001884,22 Z M40.5776751,22 L40.5776751,5.9921875 L46.8940813,5.9921875 C49.4097189,5.9921875 51.4546203,6.72655516 53.028847,8.1953125 C54.6030736,9.66406984 55.3901751,11.593738 55.3901751,13.984375 C55.3901751,15.578133 55.0327568,16.9843689 54.3179095,18.203125 C53.6030621,19.4218811 52.6050252,20.3593717 51.3237688,21.015625 C50.0425124,21.6718783 48.5737771,22 46.9175188,22 L40.5776751,22 Z M43.9878313,19 L46.8940813,19 C47.917524,19 48.8159525,18.7695336 49.5893938,18.3085938 C50.3628352,17.8476539 50.9429075,17.2421913 51.3296282,16.4921875 C51.7163489,15.7421837 51.9097063,14.9062546 51.9097063,13.984375 C51.9097063,12.5234302 51.4722107,11.3261765 50.5972063,10.3925781 C49.722202,9.45897971 48.4956517,8.9921875 46.9175188,8.9921875 L43.9878313,8.9921875 L43.9878313,19 Z M59.8042376,22 L59.8042376,5.9921875 L71.1362688,5.9921875 L71.1362688,8.9921875 L63.2143938,8.9921875 L63.2143938,12.3554688 L70.9604876,12.3554688 L70.9604876,15.3554688 L63.2143938,15.3554688 L63.2143938,19 L71.1362688,19 L71.1362688,22 L59.8042376,22 Z M75.7847063,22 L75.7847063,5.9921875 L79.2886126,5.9921875 L86.7065813,16.046875 L86.7065813,5.9921875 L90.1167376,5.9921875 L90.1167376,22 L86.8237688,22 L79.1948626,11.5585938 L79.1948626,22 L75.7847063,22 Z M93.5933001,22 L99.7573626,5.9921875 L104.034706,5.9921875 L110.198769,22 L106.331581,22 L105.323769,19.2929688 L98.4683001,19.2929688 L97.4604876,22 L93.5933001,22 Z M99.3940813,16.2929688 L104.386269,16.2929688 L101.890175,9.40234375 L99.3940813,16.2929688 Z M113.487831,14.0078125 C113.487831,12.8046815 113.698767,11.6835989 114.120644,10.6445312 C114.542521,9.60546355 115.116734,8.7285192 115.8433,8.01367188 C116.569866,7.29882455 117.429233,6.73828328 118.421425,6.33203125 C119.413618,5.92577922 120.472201,5.72265625 121.597206,5.72265625 C123.987843,5.72265625 125.933136,6.6679593 127.433144,8.55859375 L126.272988,9.30859375 C125.75736,8.5976527 125.085492,8.03125211 124.257363,7.609375 C123.429233,7.18749789 122.542524,6.9765625 121.597206,6.9765625 C120.667514,6.9765625 119.794476,7.14843578 118.978066,7.4921875 C118.161655,7.83593922 117.454631,8.31249695 116.856972,8.921875 C116.259313,9.53125305 115.788614,10.2753862 115.444863,11.1542969 C115.101111,12.0332075 114.929238,12.9843699 114.929238,14.0078125 C114.929238,15.3593818 115.224157,16.5722603 115.814003,17.6464844 C116.40385,18.7207085 117.206576,19.5546845 118.222206,20.1484375 C119.237836,20.7421905 120.362825,21.0390625 121.597206,21.0390625 C122.542524,21.0390625 123.429233,20.8281271 124.257363,20.40625 C125.085492,19.9843729 125.75736,19.4179723 126.272988,18.7070312 L127.456581,19.4335938 C125.894074,21.3398533 123.940968,22.2929688 121.597206,22.2929688 C120.472201,22.2929688 119.413618,22.0898458 118.421425,21.6835938 C117.429233,21.2773417 116.569866,20.7168004 115.8433,20.0019531 C115.116734,19.2871058 114.542521,18.4101614 114.120644,17.3710938 C113.698767,16.3320261 113.487831,15.2109435 113.487831,14.0078125 Z M130.511269,22 L137.06205,5.9921875 L138.761269,5.9921875 L145.31205,22 L143.730019,22 L142.147988,18.0625 L133.675331,18.0625 L132.0933,22 L130.511269,22 Z M134.132363,16.8203125 L141.690956,16.8203125 L137.929238,7.45703125 L134.132363,16.8203125 Z M149.667519,22 L149.667519,5.9921875 L151.706581,5.9921875 L157.1558,19.3164062 L162.581581,5.9921875 L164.644081,5.9921875 L164.644081,22 L163.24955,22 L163.24955,7.71484375 L157.413613,22 L156.886269,22 L151.038613,7.71484375 L151.038613,22 L149.667519,22 Z" id="M-DENACAM" fill="#2B2626"></path>
                            <circle id="Oval" fill="#B8141C" cx="29.5" cy="14.5" r="7.65"></circle>
                        </g>
                    </g>
                </g>
            </g>
        </g>
    </g>
</svg>